<svg width="214" height="286" viewBox="0 0 214 286" fill="none" xmlns="http://www.w3.org/2000/svg">
<g filter="url(#filter0_dd)">
<path d="M79.578 76.0393V138.747C79.578 144.238 82.4813 149.291 87.2538 152.076L132.195 178.257L153.154 190.473C155.739 191.985 158.642 191.945 161.029 190.831C161.546 190.592 161.983 190.353 162.421 190.035L162.46 189.995L162.5 189.916L163.296 189.279L163.375 189.199C164.966 187.687 166 185.539 166 183.032V120.364C166 119.29 165.881 118.216 165.642 117.181C164.767 112.964 162.142 109.263 158.324 107.035L92.424 68.6385C89.3219 66.848 85.822 67.2459 83.2369 68.9966C82.9983 69.116 82.7994 69.2751 82.6006 69.4741C80.7711 71.0259 79.578 73.2938 79.578 76.0393Z" fill="#AA851F"/>
<path d="M52.6539 86.8211L63.4715 93.1873L79.5787 102.657L116.247 124.223L133.906 134.608L165.643 117.14C164.768 112.883 162.143 109.182 158.325 106.994L153.314 104.05L145.638 99.5933L101.89 74.0885L94.2144 69.6322L92.4645 68.5977C89.3623 66.7674 85.8625 67.205 83.2774 68.9956L82.9592 69.3139L82.6411 69.473L52.6539 86.8211Z" fill="#FFE438"/>
<path d="M134.899 105.803L127.184 110.259V110.418L134.74 114.835L134.899 114.715L153.313 104.092L145.637 99.6353L134.899 105.803Z" fill="#E0B036"/>
<path d="M75.5612 80.4571V80.6561L83.1176 84.9931L83.2767 84.9135L101.889 74.1307L94.2137 69.6743L83.2767 76.0008L75.5612 80.4571Z" fill="#E0B036"/>
<path d="M130.962 208.297L160.989 190.83L162.381 190.034L162.421 189.994L162.5 189.915L163.296 189.278L163.375 189.198C164.966 187.686 166 185.538 166 183.031V120.363C166 119.289 165.881 118.215 165.642 117.18L133.905 134.687L132.155 178.256L130.962 208.297Z" fill="#EE9B0F"/>
<path d="M126.786 125.377L134.462 138.707L166 120.364C166 119.29 165.881 118.215 165.642 117.181C164.767 112.963 162.142 109.263 158.324 107.035L126.786 125.377Z" fill="#FAD020"/>
<path d="M55.6757 170.42L121.576 208.817C127.303 212.159 134.462 208.021 134.462 201.416V138.708C134.462 133.218 131.558 128.125 126.786 125.379L60.8857 86.9827C55.1587 83.6404 48 87.7784 48 94.3834V157.091C48.0397 162.582 50.943 167.675 55.6757 170.42Z" fill="#FFB901"/>
<path d="M52.7327 94.4237V157.131C52.7327 160.911 54.761 164.492 58.062 166.402L122.65 204.003L123.962 204.759C124.559 205.117 125.235 205.316 125.911 205.316C126.627 205.316 127.343 205.117 127.939 204.719C128.973 204.043 129.769 202.928 129.769 201.416V138.749C129.769 134.929 127.74 131.388 124.44 129.478L58.579 91.0815C57.9825 90.7234 57.3064 90.5244 56.6303 90.5244C56.153 90.5244 55.636 90.604 55.1587 90.8427C53.8065 91.3998 52.7327 92.673 52.7327 94.4237Z" fill="#FFD008"/>
<path d="M52.7327 94.4204V157.128C52.7327 160.908 54.761 164.489 58.062 166.399L122.65 203.999L123.962 204.755C124.559 205.114 125.235 205.312 125.911 205.312C126.627 205.312 127.343 205.114 127.939 204.716L55.1587 90.8394C53.8065 91.3964 52.7327 92.6697 52.7327 94.4204Z" fill="#FFDD00"/>
<path d="M82.4415 27.2184V76.716L83.0381 77.0343L90.1571 81.1325V33.1469C90.1571 32.391 90.4355 31.7145 90.9127 31.1973C91.7479 30.2423 93.2194 29.924 94.4523 30.6402L130.047 51.1714C132.513 52.6038 134.024 55.1901 134.064 58.0549V106.478L141.78 110.974V55.2299C141.78 54.9911 141.78 54.7524 141.78 54.5137C141.541 50.9724 139.552 47.7893 136.45 45.959L93.2194 20.9715C90.9923 19.6982 88.5662 19.738 86.5379 20.7328L85.4244 21.3694C83.9528 22.4437 82.879 24.0353 82.6006 25.9849C82.4813 26.3828 82.4415 26.7807 82.4415 27.2184Z" fill="#F7B410"/>
<path d="M134.899 114.913L141.78 110.934V54.4731L134.899 58.5316V114.913Z" fill="#EE9B0F"/>
<path d="M82.4416 36.6088V59.2885L82.9984 77.0344L83.2768 85.0718L90.1571 81.1327V36.0915L88.3276 32.3911L85.4244 32.6298L83.2768 35.2559L82.4416 36.6088Z" fill="#EE9B0F"/>
<path d="M80.0958 24.4729L82.5616 25.9849L90.9134 31.1973L134.065 58.0549L134.86 58.5722L141.741 54.4739C141.502 50.9327 139.513 47.7495 136.411 45.9192L135.377 45.3224L93.1804 20.9715C90.9532 19.6982 88.5272 19.738 86.4989 20.7328L85.3853 21.3694L80.0958 24.4729Z" fill="#FFE438"/>
<path d="M128.536 49.3021L134.899 58.5332L141.74 54.4747C141.501 50.9335 139.513 47.7504 136.411 45.9201L135.377 45.3232L128.536 49.3021Z" fill="#FAD020"/>
<path d="M75.5612 31.1586V80.6562L83.1176 84.9932L83.2767 85.1125V37.0871C83.2767 34.859 85.663 33.4663 87.572 34.5804L123.167 55.1116C125.633 56.544 127.184 59.2099 127.184 62.0747V110.418L134.78 114.795L134.939 114.875V59.1701C134.939 55.3503 132.911 51.7693 129.57 49.8992L86.2993 24.9117C81.5268 22.1662 75.5612 25.6677 75.5612 31.1586Z" fill="#FFD000"/>
<path d="M95.5659 166.601L92.941 143.086L93.4581 142.37C94.4523 140.897 95.0489 138.828 95.0091 136.401C94.9694 136.123 94.9296 135.844 94.85 135.566C94.8103 135.526 94.8103 135.486 94.8103 135.486C94.333 134.014 93.6569 132.661 92.8217 131.507C92.8217 131.467 92.8217 131.467 92.782 131.467L92.7422 131.428C91.3104 129.796 89.6401 128.762 87.9697 128.642C84.5892 128.443 82.6404 132.184 83.5551 137.078C83.8335 138.43 84.271 139.704 84.9073 140.897L80.7712 158.166L95.5659 166.601Z" fill="#7A3F00"/>
<path d="M80.8905 158.124L93.9353 151.837L95.5659 166.599L80.8905 158.124Z" fill="#A85700"/>
<path d="M83.6744 136.995C83.9528 138.348 84.3903 139.621 85.0266 140.815L95.0091 136.358C94.9693 136.08 94.9296 135.801 94.85 135.523C94.8102 135.483 94.8102 135.443 94.8102 135.443C94.333 133.971 93.6569 132.618 92.8217 131.464C92.8217 131.425 92.8217 131.425 92.7819 131.425L92.7422 131.385C91.3104 129.753 89.64 128.719 87.9697 128.6C84.7085 128.361 82.7199 132.141 83.6744 136.995Z" fill="#4D2800"/>
</g>
<defs>
<filter id="filter0_dd" x="0" y="0" width="214" height="286" filterUnits="userSpaceOnUse" color-interpolation-filters="sRGB">
<feFlood flood-opacity="0" result="BackgroundImageFix"/>
<feColorMatrix in="SourceAlpha" type="matrix" values="0 0 0 0 0 0 0 0 0 0 0 0 0 0 0 0 0 0 127 0"/>
<feOffset dy="28"/>
<feGaussianBlur stdDeviation="24"/>
<feColorMatrix type="matrix" values="0 0 0 0 0.992157 0 0 0 0 0.839216 0 0 0 0 0.356863 0 0 0 0.7 0"/>
<feBlend mode="normal" in2="BackgroundImageFix" result="effect1_dropShadow"/>
<feColorMatrix in="SourceAlpha" type="matrix" values="0 0 0 0 0 0 0 0 0 0 0 0 0 0 0 0 0 0 127 0"/>
<feOffset dy="3"/>
<feGaussianBlur stdDeviation="2"/>
<feColorMatrix type="matrix" values="0 0 0 0 0.320833 0 0 0 0 0.183131 0 0 0 0 0.0360937 0 0 0 0.3 0"/>
<feBlend mode="normal" in2="effect1_dropShadow" result="effect2_dropShadow"/>
<feBlend mode="normal" in="SourceGraphic" in2="effect2_dropShadow" result="shape"/>
</filter>
</defs>
</svg>
