<svg width="280" height="272" viewBox="0 0 280 272" fill="none" xmlns="http://www.w3.org/2000/svg">
<g opacity="0.1" filter="url(#filter0_d)">
<path d="M53.8246 193.171C10.0343 169.791 4.48344 105.805 106.25 83.6557C208.016 61.5066 264.758 121.802 247.489 204.861C230.324 287.418 99.2147 217.408 54.6289 193.601L53.8246 193.171Z" fill="url(#paint0_linear)"/>
</g>
<g filter="url(#filter1_d)">
<path d="M58.836 188.232C14.9501 164.853 9.38712 100.866 111.375 78.7169C213.364 56.5678 270.23 116.863 252.923 199.922C235.721 282.479 104.325 212.47 59.6421 188.662L58.836 188.232Z" fill="url(#paint1_linear)"/>
</g>
<path d="M175.116 150.035C175.116 150.035 174.33 152.401 174.393 152.963C174.468 153.536 176.093 155.764 176.21 155.838C176.327 155.902 177.697 157.662 179.248 158.501C180.799 159.349 180.916 159.763 181.054 159.784C181.203 159.805 181.426 159.657 181.426 159.657C181.426 159.657 181.66 158.044 180.98 157.259C180.3 156.474 181.32 155.318 181.32 155.318L179.567 150.746L175.116 150.035Z" fill="#FCD1C5"/>
<g filter="url(#filter2_d)">
<path d="M191.932 200.594C191.932 200.594 189.191 201.23 186.536 201.326C183.88 201.421 176.656 202.779 176.794 205.368C176.932 207.967 180.64 211.69 185.335 212.252C190.031 212.815 196.096 211.531 199.167 211.616C202.226 211.701 204.393 208.699 203.257 205.813C202.12 202.938 191.932 200.594 191.932 200.594Z" fill="#151A2E"/>
</g>
<g filter="url(#filter3_d)">
<path d="M207.942 193.688C207.942 193.688 208.909 195.258 208.399 196.213C207.878 197.167 206.518 199.554 202.269 197.22C198.03 194.897 189.808 191.556 189.808 191.556C189.808 191.556 185.091 189.084 185.399 186.199C185.707 183.324 190.095 183.78 190.095 183.78L207.942 193.688Z" fill="#151A2E"/>
</g>
<path d="M160.668 89.844C160.668 89.844 157.863 89.8758 156.631 89.3242C155.399 88.7725 151.808 87.595 151.585 87.4783C151.362 87.3616 149.386 87.2343 148.483 86.6509C148.483 86.6509 147.474 87.1389 148.271 87.9557C149.067 88.7725 150.576 89.0377 150.576 89.0377L151.999 89.8652C151.999 89.8652 149.12 91.3397 148.865 91.4458C148.61 91.5519 146.199 93.3871 145.955 93.5038C145.71 93.6205 144.637 94.4585 145.052 95.1905C145.052 95.1905 145.094 95.3602 145.636 95.4769C145.636 95.4769 144.096 96.1771 144.478 96.9303C144.86 97.6834 145.838 97.3546 145.838 97.3546C145.838 97.3546 146.21 98.7124 148.069 97.6622C148.069 97.6622 148.281 99.3489 152.414 97.588C152.414 97.588 154.081 97.153 155.303 97.2379C156.525 97.3228 159.839 96.4635 161.624 95.2117C163.366 93.9706 160.668 89.844 160.668 89.844Z" fill="#FCD1C5"/>
<path d="M155.282 97.2379C156.504 97.3228 159.818 96.4635 161.603 95.2118C162.803 94.3737 161.964 92.2309 161.284 90.9154C160.445 90.5123 159.701 90.1729 159.701 90.1729C159.701 90.1729 159.829 94.257 159.733 94.8617C159.637 95.477 155.951 96.1983 153.582 96.5484C151.213 96.8985 148.111 97.8108 148.101 97.8108C148.281 98.1821 149.078 98.9883 152.382 97.5774C152.392 97.588 154.06 97.1531 155.282 97.2379Z" fill="#E2B1A6"/>
<path d="M193.122 81.9197C193.122 81.9197 187.29 82.9381 185.303 83.5746C183.381 84.1898 166.659 87.489 160.54 88.9848C160.158 89.0802 159.85 89.3879 159.765 89.791C159.691 90.1092 159.648 90.4911 159.722 90.8094C159.892 91.4989 160.477 98.4155 163.876 97.2804C164.896 96.9409 167.892 96.3151 170.293 95.9968C172.683 95.6786 182.902 94.8935 182.902 94.8935L200.187 85.0173L193.122 81.9197Z" fill="#3C3F51"/>
<path d="M180.608 152.231C180.608 152.231 182.149 171.283 185.952 178.465C189.798 185.742 190.647 198.96 191.423 201.474C192.209 203.999 194.684 207.627 198.7 208.402C202.705 209.176 203.427 206.545 203.257 204.965C203.098 203.384 202.036 200.827 202.057 199.109C202.078 197.401 202.514 196.595 202.588 195.81C202.588 195.81 207.177 197.146 207.953 193.688C207.953 193.688 207.602 192.68 207.549 192.16C207.496 191.641 208.24 179.091 208.388 177.563C208.537 176.047 207.878 167.772 206.678 163.677C205.488 159.614 206.104 150.947 206.104 150.947L192.836 149.017L180.608 152.231Z" fill="#262939"/>
<path d="M202.141 152.305C202.141 152.305 202.025 155.276 200.697 157.768C200.697 157.768 200.505 167.857 199.337 172.938C199.337 172.938 200.835 183.133 201.844 186.336C202.853 189.561 202.577 195.81 202.577 195.81C202.577 195.81 203.098 196.001 203.852 196.032C204.606 196.064 204.935 183.674 203.82 181.467C202.715 179.271 202.046 169.533 202.545 166.552C203.044 163.592 203.076 155.085 203.692 153.589C204.298 152.093 203.013 151.287 203.013 151.287L202.141 152.305Z" fill="#141726"/>
<path d="M192.24 82.0789C192.24 82.0789 188.256 84.837 188.362 89.7168L191.294 89.1439C191.294 89.1333 190.53 83.7231 192.24 82.0789Z" fill="#1694FF"/>
<path d="M192.368 156.379C201.174 156.718 206.008 152.952 206.008 152.952C206.05 151.743 206.114 150.958 206.114 150.958L192.846 149.027L180.618 152.231C180.618 152.231 180.926 155.997 181.596 160.824C183.752 161.068 185.972 155.912 185.972 155.912L192.017 156.336C192.006 156.336 183.55 156.039 192.368 156.379Z" fill="#141726"/>
<path d="M182.308 152.528C182.308 152.528 201.345 160.315 210.916 145.93C211.192 145.516 211.32 145.017 211.32 144.508L211.277 141.124C211.277 140.689 211.341 140.265 211.49 139.872C211.808 139.013 211.893 138.08 211.745 137.167C211.118 133.359 209.408 122.963 209.015 120.077C208.537 116.545 210.767 102.394 214.124 96.262C217.439 90.2153 209.609 76.2973 209.609 76.2973C209.609 76.2973 207.676 73.03 203.714 74.0696C203.714 74.0696 207.41 76.7429 205.296 79.4692C203.172 82.2061 196.968 84.3172 196.968 84.3172C196.968 84.3172 185.452 90.0032 181.437 97.0682C181.437 97.0682 180.034 100.739 179.843 105.406C179.652 110.106 180.002 121.361 179.779 122.92C179.556 124.48 178.791 135.109 178.844 135.608C178.898 136.085 182.308 152.528 182.308 152.528Z" fill="#292C3B"/>
<path d="M188.108 154.141C188.108 154.141 200.017 124.3 199.709 113.31C199.401 102.542 182.69 134.759 182.69 134.759L182.318 152.518C182.308 152.528 185.92 153.865 188.108 154.141Z" fill="#1C2032"/>
<path d="M182.584 118.603C183.041 116.131 183.317 113.649 183.391 111.166C183.508 106.838 184.868 99.646 192.814 101.014C204.011 102.945 198.891 118.348 197.616 121.032C196.331 123.727 191.21 135.82 190.945 136.499C190.69 137.146 182.733 152.135 179.928 155.71C179.673 156.039 179.227 156.082 178.93 155.827C177.825 154.894 175.36 152.666 175.052 151.276C174.659 149.473 176.359 142.97 176.359 142.97C176.359 142.97 180.969 126.633 181.341 125.87C181.607 125.297 181.84 122.602 182.584 118.603Z" fill="#3C3F51"/>
<path d="M192.432 82.4283C192.432 82.4283 191.571 80.3916 189.5 80.1476C187.428 79.9036 186.26 79.3095 186.068 78.5457C185.877 77.7819 185.877 76.859 185.388 75.7133C184.91 74.5676 184.528 71.7671 184.539 71.7034C184.549 71.6398 182.977 71.1306 182.913 70.441C182.849 69.7515 183.71 67.2904 183.625 67.0994C183.54 66.9085 182.711 65.3703 182.849 64.1928C182.988 63.0153 183.168 61.3073 183.816 59.8752C184.475 58.4431 189.043 49.7019 200.463 54.4756C211.957 59.2706 202.938 68.8074 203.947 75.0874C203.947 75.0874 204.946 76.4241 203.012 78.62C201.079 80.8159 195.597 81.2084 192.432 82.4283Z" fill="#FCD1C5"/>
<path d="M203.013 78.5993C204.935 76.3928 203.947 75.0667 203.947 75.0667C203.809 74.1969 203.862 73.2633 204.032 72.2768L199.486 73.0618C199.486 73.0618 192.91 67.0151 193.324 70.1976C193.738 73.4012 192.113 73.921 192.113 73.921L193.452 75.682C193.792 76.1382 193.579 76.658 193.282 77.1353C191.316 80.3602 186.695 79.31 186.685 79.31C187.258 79.6919 188.204 79.9889 189.5 80.1375C191.571 80.3815 192.432 82.4182 192.432 82.4182C195.598 81.2089 201.079 80.8164 203.013 78.5993Z" fill="#E2B1A6"/>
<path d="M183.36 56.5023C183.36 56.5023 182.521 58.8468 183.806 59.8545C185.092 60.8729 186.26 61.8277 186.26 61.8277L186.207 64.8086C186.196 65.2329 186.313 65.6572 186.547 66.0285L188.14 68.5745C188.449 69.0625 188.608 69.6353 188.597 70.2188L188.587 71.4281C188.587 71.7888 188.842 72.0858 189.192 72.1283L189.617 72.1813C190 72.2343 190.339 71.9585 190.393 71.5766L190.605 69.8899C190.605 69.8899 191.487 68.5533 193.346 70.1976L195.024 70.9189C195.492 71.1205 195.853 71.513 196.023 72.001C196.469 73.3058 197.436 75.8836 198.179 76.3185C199.189 76.9126 203.183 74.9394 203.735 74.0484C204.277 73.1573 205.743 67.1742 206.636 64.3206C207.517 61.4776 207.188 54.3913 198.679 52.4182C190.148 50.445 184.582 53.9564 183.36 56.5023Z" fill="#AA8383"/>
<path d="M203.714 74.0483C204.256 73.1573 205.722 67.1742 206.614 64.3206C206.614 64.3206 203.268 66.4529 198.976 67.0257C194.673 67.5985 186.249 62.6233 186.249 62.6233L186.207 64.8086C186.196 65.2329 186.313 65.6572 186.547 66.0285L188.14 68.5745C188.448 69.0625 188.608 69.6353 188.597 70.2188L188.586 71.4281C188.586 71.7888 188.841 72.0858 189.192 72.1283L189.617 72.1813C189.999 72.2343 190.339 71.9585 190.392 71.5766L190.605 69.8899C190.605 69.8899 191.486 68.5533 193.346 70.1976L195.768 71.2372C195.768 71.2372 197.17 75.7244 198.179 76.3079C199.167 76.9126 203.162 74.9394 203.714 74.0483Z" fill="#936D6D"/>
<path d="M203.873 74.3347C203.873 74.3347 207.134 76.4139 205.424 79.2675C203.703 82.1318 191.624 87.0646 191.019 87.8072C191.019 87.8072 190.626 83.5002 192.24 82.0681C192.24 82.0681 201.451 80.4451 202.927 78.1325C204.393 75.8517 203.873 74.3347 203.873 74.3347Z" fill="#F0F6FF"/>
<path d="M203.873 74.3347C203.873 74.3347 204.393 75.8411 202.927 78.1325C201.812 79.8722 196.266 81.2301 193.632 81.7923C193.632 81.7923 194.599 82.3545 196.171 85.1339C199.889 83.2987 204.414 80.9224 205.413 79.2569C207.134 76.4245 203.873 74.3347 203.873 74.3347Z" fill="#C4CCD6"/>
<path d="M197.68 103.529C200.601 112.917 192.538 127.27 191.348 131.46C190.148 135.682 178.048 155.064 178.037 155.074C178.366 155.371 178.664 155.626 178.898 155.827C179.206 156.082 179.641 156.039 179.896 155.711C182.701 152.136 190.668 137.146 190.913 136.499C191.178 135.81 196.299 123.716 197.584 121.032C198.636 118.879 202.131 108.504 197.68 103.529Z" fill="#151A2E"/>
<path d="M205.902 83.5638C205.902 83.5638 200.505 86.5129 197.881 87.839C195.247 89.1756 192.368 90.9472 192.368 90.9472L191.391 89.95L190.148 92.5384C190.148 92.5384 186.005 94.9147 184.061 96.909C182.106 98.914 180.608 101.545 180.396 102.149C180.396 102.149 185.612 95.6042 189.68 93.6947L190.774 93.1643L191.422 91.1063L192.389 92.1565C192.389 92.1671 204.245 85.346 205.902 83.5638Z" fill="#151A2E"/>
<path d="M119.418 84.1898C119.418 84.1898 121.426 84.5293 122.159 84.158C122.892 83.7867 124.815 83.5321 127.035 84.3277C129.266 85.1233 129.075 84.996 129.956 85.0915C130.838 85.1764 132.262 85.2718 132.729 85.5583C133.197 85.8553 134.078 86.4069 133.26 87.5738C132.442 88.7407 129.383 87.6481 128.884 87.5526C128.384 87.4571 127.842 88.3376 128.087 89.1332C128.331 89.9289 132.952 94.9678 133.675 95.4664C134.397 95.965 137.52 98.0442 137.648 98.8716C137.786 99.6991 137.605 99.8157 137.605 99.8157C137.605 99.8157 138.519 100.633 138.19 101.396C137.871 102.16 136.447 100.993 136.192 101.163C136.192 101.163 136.426 102.012 136.076 102.16C135.725 102.319 133.707 101.534 133.462 101.29C133.462 101.29 133.228 101.937 132.071 101.269C130.913 100.601 126.493 98.0866 125.973 97.6092C125.452 97.1319 123.71 95.53 122.998 95.0951C122.286 94.6707 121.044 93.1962 120.427 92.6234C119.811 92.0505 117.07 90.6608 116.019 90.4593C114.988 90.2683 119.418 84.1898 119.418 84.1898Z" fill="#FCD1C5"/>
<path d="M122.945 93.3023C121.925 91.4459 118.515 90.0138 118.515 90.0138C118.749 88.5074 120.916 84.3383 120.916 84.3383C120.162 84.3277 119.408 84.2004 119.408 84.2004C119.408 84.2004 114.978 90.2683 116.019 90.4699C117.071 90.6715 119.811 92.0611 120.427 92.634C121.044 93.2068 122.276 94.6708 122.998 95.1057C123.721 95.53 125.452 97.1425 125.973 97.6199C126.493 98.0972 130.913 100.601 132.071 101.28C133.229 101.948 133.462 101.301 133.462 101.301C133.707 101.545 135.725 102.33 136.076 102.171C136.426 102.012 136.192 101.174 136.192 101.174C136.192 101.174 134.769 100.367 133.303 99.8582C131.858 99.3278 123.965 95.1587 122.945 93.3023Z" fill="#E2B1A6"/>
<path d="M116.104 77.5172C116.104 77.5172 116.539 79.7768 116.38 81.6226C116.221 83.4684 112.513 81.0498 112.651 80.7315C112.789 80.4133 114.415 77.6233 114.415 77.6233L116.104 77.5172Z" fill="#FCD1C5"/>
<path d="M99.9238 21.8134C99.9238 21.8134 101.985 21.7179 104.481 25.8233C106.893 29.7802 111.131 43.921 113.362 49.3524C113.564 49.8298 113.702 50.3284 113.798 50.8482C114.52 55.0808 117.909 75.0031 118.058 77.39C118.058 77.39 115.476 79.1085 113.819 79.5328L110.175 78.3235L106.585 42.2237L100.763 23.1607L99.9238 21.8134Z" fill="#151A2E"/>
<g filter="url(#filter4_d)">
<path d="M88.26 140.615C88.26 140.615 87.5589 143.957 87.9413 144.604C88.3237 145.251 92.6687 150.162 93.1361 150.82C93.5929 151.478 95.8344 155.498 99.9562 156.474C104.078 157.461 106.893 157.206 107.446 155.265C107.998 153.334 105.587 150.131 104.461 149.091C103.345 148.062 98.6283 142.461 97.7678 141.655C96.9073 140.848 95.6644 140.721 95.6644 140.721L90.289 141.655L88.26 140.615Z" fill="#151A2E"/>
</g>
<g filter="url(#filter5_d)">
<path d="M104.939 130.622C104.939 130.622 109.05 132.213 111.196 132.754C113.352 133.295 118.473 137.125 118.42 139.045C118.366 140.976 115.838 142.302 113.278 142.111C110.718 141.92 107.669 140.286 107.17 139.851C106.67 139.416 104.917 138.462 102.814 137.804C100.721 137.146 97.3324 136.828 96.78 135.714C96.2276 134.6 96.1426 132.298 96.1426 132.298L104.939 130.622Z" fill="#151A2E"/>
</g>
<path d="M95.6432 129.922C95.6751 129.72 95.8132 129.392 95.8451 129.254C96.0363 128.235 95.8557 124.109 95.8557 124.109L94.9527 125.35C94.9527 125.35 95.5901 129.487 96.833 135.947C97.1517 137.592 98.0122 139.278 98.1291 140.212C98.5009 142.981 96.8649 143.522 96.8649 143.522C93.5186 146.036 90.6715 144.519 89.6411 143.713C88.6106 142.906 88.2707 141.612 86.8471 136.945C85.4342 132.319 84.2019 122.539 84.51 120.215C84.7756 118.168 85.5299 112.44 85.4874 108.504C85.4555 104.589 82.4385 92.0929 82.4385 92.0929L94.8996 89.6743L103.409 85.2719L109.878 86.2584C109.878 86.2584 110.696 83.5215 111.557 92.0399C112.428 100.686 107.18 115.983 107.18 115.983C105.799 123.557 105.449 132.266 104.662 133.444C103.876 134.621 100.774 137.411 97.906 135.247C97.3748 134.844 96.7799 134.43 96.4612 134.006L95.6432 129.922Z" fill="#262939"/>
<path d="M94.9531 125.35C94.9531 125.35 99.0537 114.211 100.998 103.422C102.91 92.8142 106.214 91.3184 107.584 89.4196C107.584 89.4196 109.656 90.3637 110.75 90.5546C110.888 90.5759 111.005 90.5865 111.101 90.5865C112.014 90.5546 106.522 97.3863 105.534 99.1367C104.546 100.898 98.8625 115.919 98.4694 117.998C98.0764 120.077 97.6727 134.579 98.1295 135.406C98.5863 136.234 96.5572 134.78 96.5572 134.78C96.5572 134.78 95.3037 131.577 94.9531 125.35Z" fill="#141726"/>
<path d="M105.587 85.6113L103.398 85.2825L94.8889 89.6849L82.4277 92.1036C82.4277 92.1036 85.4447 104.6 85.4766 108.515C85.5191 112.45 84.7649 118.179 84.4993 120.226C84.1912 122.528 85.4235 132.33 86.8364 136.955C87.4526 138.971 87.8669 140.36 88.2281 141.358C88.7911 143.988 90.7776 144.413 90.7776 144.413C90.7776 144.413 85.8909 129.307 86.3265 120.47C86.7514 111.761 88.005 104.505 87.7713 102.818C87.7713 102.818 101.964 98.4579 104.62 89.3136C105.034 87.8709 105.353 86.6509 105.587 85.6113Z" fill="#141726"/>
<path d="M81.0153 23.7547C81.0153 23.7547 80.0061 24.6034 79.7936 25.4626C79.5705 26.3325 78.3276 29.3983 78.3276 29.3983C78.3276 29.3983 72.3998 37.259 71.3268 39.6671C70.2539 42.0857 69.9033 43.8891 69.9033 43.8891L85.6152 63.2067C85.6152 63.2067 80.1123 82.1424 81.6527 89.0484C83.2037 96.0392 85.2221 98.6382 87.6973 99.3914C90.1726 100.145 103.388 94.7132 104.302 87.7966C105.205 80.9543 104.833 80.095 104.833 80.095C104.833 80.095 111.005 81.7393 111.387 80.1693C111.77 78.5993 110.612 67.3121 110.293 65.6997C109.974 64.0872 109.029 46.2866 109.029 46.2866C109.029 46.2866 105.268 29.8545 105.056 29.0482C104.843 28.242 102.506 22.068 99.4998 21.7179C96.4934 21.3679 92.754 26.1416 92.754 26.1416L81.0153 23.7547Z" fill="#292C3B"/>
<path d="M81.7163 23.1606C81.7163 23.1606 81.1002 23.5744 80.9621 24.2639C80.8346 24.9534 80.3141 26.3007 81.4295 27.7116C82.545 29.1225 91.596 36.4952 95.261 42.701C98.9579 48.9705 103.547 55.9507 103.93 57.404C103.93 57.404 105.597 47.4853 104.089 42.9238C102.591 38.3941 97.8 29.1649 96.7802 28.486C95.771 27.7964 89.5457 27.213 89.5457 27.213L81.7163 23.1606Z" fill="#F0F6FF"/>
<path d="M91.0644 33.1324C91.0644 33.1324 90.5757 33.9386 90.427 34.5645C90.427 34.5645 87.8031 33.2278 86.6982 32.7292L90.7351 35.5298C90.7351 35.5298 90.9688 34.0659 91.1706 33.8431C91.1706 33.8431 93.4759 35.6041 93.7946 36.3785C94.1239 37.1635 98.3732 47.8354 98.3732 47.8354L100.604 51.4846L101.178 50.6041L97.5234 40.6536C97.5234 40.6536 95.4625 37.5242 95.4306 37.4499C95.3987 37.3757 94.0071 34.0128 94.0071 34.0128L91.0644 33.1324Z" fill="#C4CCD6"/>
<path d="M91.0645 33.1323C91.0645 33.1323 92.403 30.6394 94.9951 30.7349C94.9951 30.7349 95.7387 33.8112 95.9512 35.063C95.9512 35.063 94.2833 35.7844 93.6034 35.2009C92.9235 34.6175 91.0645 33.1323 91.0645 33.1323Z" fill="#00CB68"/>
<path d="M95.5476 34.3947C95.5476 34.3947 102.208 42.5948 104.535 52.4923L104.046 57.5949L100.541 51.3573C100.541 51.3573 94.804 37.0361 93.4655 34.4159C92.1482 31.8169 95.5476 34.3947 95.5476 34.3947Z" fill="#00CB68"/>
<path d="M84.51 67.2803C84.0638 69.0306 83.5432 71.2053 83.0439 73.5391C83.0439 73.5497 92.9024 86.3857 102.527 91.6262C103.462 90.4274 104.11 89.1438 104.291 87.8072C104.769 84.1898 104.885 82.2485 104.896 81.2195L93.7097 72.7435L84.51 67.2803Z" fill="#1C2032"/>
<path d="M83.8408 48.4082C83.8408 48.4082 86.6879 52.2908 87.4527 52.6409C88.2176 52.991 94.3791 63.7795 95.622 65.8163C96.8756 67.8531 100.19 70.7173 100.19 70.7173L97.0562 71.0249L84.7757 54.5716L83.8408 48.4082Z" fill="#151A2E"/>
<path d="M85.5829 51.8347C84.3506 48.7264 82.4066 46.0001 79.9207 43.9209C77.0843 41.5553 73.3662 39.2427 71.4009 41.3219C67.9483 44.9711 69.4143 51.8453 74.2266 58.2845C79.0921 64.7979 86.7515 74.0589 88.5575 75.6183C90.2891 77.1141 105.151 88.2739 113.671 92.4536C114.308 92.7612 115.041 92.5278 115.424 91.9019C116.603 89.9606 119.036 85.9295 119.907 84.264C120.087 83.9245 119.981 83.5002 119.662 83.2987C116.55 81.3043 100.997 71.3114 96.3975 68.2138C95.6963 67.7364 95.1227 67.0893 94.719 66.3149C93.3698 63.6947 89.9172 57.2342 86.8684 53.9457C86.3266 53.3622 85.9123 52.6621 85.6148 51.9089C85.6042 51.8771 85.5936 51.8559 85.5829 51.8347Z" fill="#3C3F51"/>
<path d="M97.0244 25.2186L102.464 30.7137L101.061 31.2017L102.857 32.2413C102.857 32.2413 107.212 42.51 106.256 54.1367C106.256 54.1367 108.413 44.9924 103.738 32.0291L102.294 31.2971L103.271 30.9895L97.0244 25.2186Z" fill="#151A2E"/>
<path d="M81.5991 22.2268C81.6947 22.439 81.7478 22.6724 81.7372 22.9057C81.6947 23.3937 81.6416 24.2106 81.684 24.5606C81.7478 25.0804 85.1579 30.8089 92.1267 30.8619C92.1267 30.8619 92.966 29.6208 93.1253 29.3768C93.1253 29.3768 95.9405 29.2495 97.1197 28.2205C98.2989 27.2021 97.5765 25.3987 97.5765 25.3987L97.7465 23.2452C97.7677 22.98 97.8846 22.7466 98.0758 22.5663C98.3201 22.3329 98.6494 21.9828 98.7132 21.7282C98.7769 21.4736 98.607 21.0281 98.4689 20.7205C98.3732 20.5189 98.3414 20.2855 98.3626 20.0627C98.4264 19.5217 98.4795 18.3654 98.097 16.9227C97.9908 16.509 97.9802 16.074 98.0864 15.6497C98.2564 14.9602 98.5007 13.9524 98.5326 13.5917C98.5751 13.0295 97.619 11.5337 97.5765 10.9397C97.534 10.3456 96.716 8.35125 96.716 8.35125C96.716 8.35125 91.5318 -1.2598 83.1713 2.89862C74.747 7.08888 79.1345 16.0847 80.1755 18.6306C80.1755 18.6306 81.1848 20.7098 81.3547 21.166C81.5035 21.5691 81.3972 21.7813 81.5991 22.2268Z" fill="#FCD1C5"/>
<path d="M97.4486 9.38048C97.523 10.0594 97.268 10.7277 96.7475 11.1839C95.7383 12.075 93.7198 13.5495 91.0534 13.8996C89.1731 14.1436 88.1532 14.2391 87.5902 14.2709C87.2184 14.2921 86.9209 14.5997 86.8997 14.971C86.8572 15.6712 86.7934 16.732 86.6872 17.4427C86.6447 17.7292 86.5597 18.005 86.4429 18.2702L85.848 19.5326C85.6992 19.8402 85.3806 20.0311 85.0406 20.0099L84.9025 19.9993C84.5201 19.9675 84.2226 19.6811 84.1695 19.2992L84.1589 19.2461C84.0314 18.2596 83.4471 17.3791 82.5654 16.9654C82.1192 16.7532 81.6093 16.6577 81.11 16.8699C79.6652 17.464 80.2707 18.8642 80.2707 18.8642C80.2707 18.8642 78.5179 16.7638 77.7318 13.9738C76.9457 11.1839 77.1263 6.15558 80.77 3.52474C84.3926 0.904506 89.1306 -0.156318 93.1674 2.68669C96.5031 5.03111 97.2893 7.8529 97.4486 9.38048Z" fill="#AA8383"/>
<path d="M83.6595 21.1556C83.4789 20.9328 83.7126 22.8529 81.7367 22.9059C81.6942 23.3939 81.6411 24.2107 81.6836 24.5608C81.7473 25.0806 85.1574 30.809 92.1263 30.8621C92.1263 30.8621 92.9655 29.6209 93.1249 29.3769C93.1249 29.3769 86.7297 26.2793 85.593 24.8684C84.4669 23.4681 83.8401 21.3783 83.6595 21.1556Z" fill="#E2B1A6"/>
<path d="M94.9844 30.7243C94.9844 30.7243 96.8859 30.9365 97.7677 31.4138C97.7677 31.4138 98.0226 30.4273 97.5127 29.3665C97.5127 29.3665 98.0758 29.8226 98.0758 32.0822C98.0758 32.0822 95.2925 31.1805 95.08 31.1168L94.9844 30.7243Z" fill="#C4CCD6"/>
<path d="M116.178 90.3743C116.178 90.3743 100.041 81.1133 94.57 77.4216C89.1415 73.7512 73.8546 58.1783 70.7207 52.1741C71.5281 54.179 72.7073 56.2476 74.2264 58.2844C79.0919 64.7979 86.7512 74.0588 88.5572 75.6182C90.2888 77.114 105.151 88.2739 113.671 92.4535C114.308 92.7611 115.041 92.5278 115.424 91.9019C115.647 91.5306 115.923 91.0744 116.231 90.5652C116.199 90.4486 116.178 90.3743 116.178 90.3743Z" fill="#151A2E"/>
<path d="M79.0703 29.8862L86.4429 40.3566L88.3444 39.6882L88.4507 41.6826C88.4507 41.6826 97.2786 48.2491 103.876 61.8807C103.876 61.8807 95.1434 47.8354 88.1851 43.1677L87.5477 41.1628L86.0711 41.5022L79.0703 29.8862Z" fill="#151A2E"/>
<path d="M78.4017 15.3211C78.3167 15.2893 78.2423 15.2787 78.168 15.2575C79.0285 17.3897 80.2608 18.8643 80.2608 18.8643C80.2608 18.8643 79.6659 17.464 81.1 16.8699C81.5993 16.6578 82.1092 16.7533 82.5554 16.9654C83.4371 17.3791 84.0108 18.2596 84.1489 19.2462L84.1595 19.2992C84.2126 19.6811 84.5101 19.9675 84.8925 19.9994L85.0306 20.01C85.3706 20.0312 85.6893 19.8509 85.838 19.5326L86.4329 18.2702C86.5604 18.005 86.6454 17.7292 86.6772 17.4428C86.7728 16.732 86.8472 15.6712 86.8897 14.9711C86.9003 14.9711 81.9817 16.5623 78.4017 15.3211Z" fill="#936D6D"/>
<defs>
<filter id="filter0_d" x="0" y="59.0365" width="274.559" height="212.963" filterUnits="userSpaceOnUse" color-interpolation-filters="sRGB">
<feFlood flood-opacity="0" result="BackgroundImageFix"/>
<feColorMatrix in="SourceAlpha" type="matrix" values="0 0 0 0 0 0 0 0 0 0 0 0 0 0 0 0 0 0 127 0"/>
<feOffset dy="4"/>
<feGaussianBlur stdDeviation="12"/>
<feColorMatrix type="matrix" values="0 0 0 0 0 0 0 0 0 0.312296 0 0 0 0 0.579167 0 0 0 0.1 0"/>
<feBlend mode="normal" in2="BackgroundImageFix" result="effect1_dropShadow"/>
<feBlend mode="normal" in="SourceGraphic" in2="effect1_dropShadow" result="shape"/>
</filter>
<filter id="filter1_d" x="4.94629" y="54.0977" width="275.053" height="212.963" filterUnits="userSpaceOnUse" color-interpolation-filters="sRGB">
<feFlood flood-opacity="0" result="BackgroundImageFix"/>
<feColorMatrix in="SourceAlpha" type="matrix" values="0 0 0 0 0 0 0 0 0 0 0 0 0 0 0 0 0 0 127 0"/>
<feOffset dy="4"/>
<feGaussianBlur stdDeviation="12"/>
<feColorMatrix type="matrix" values="0 0 0 0 0 0 0 0 0 0.312296 0 0 0 0 0.579167 0 0 0 0.1 0"/>
<feBlend mode="normal" in2="BackgroundImageFix" result="effect1_dropShadow"/>
<feBlend mode="normal" in="SourceGraphic" in2="effect1_dropShadow" result="shape"/>
</filter>
<filter id="filter2_d" x="170.792" y="198.594" width="38.7715" height="23.8014" filterUnits="userSpaceOnUse" color-interpolation-filters="sRGB">
<feFlood flood-opacity="0" result="BackgroundImageFix"/>
<feColorMatrix in="SourceAlpha" type="matrix" values="0 0 0 0 0 0 0 0 0 0 0 0 0 0 0 0 0 0 127 0"/>
<feOffset dy="4"/>
<feGaussianBlur stdDeviation="3"/>
<feColorMatrix type="matrix" values="0 0 0 0 0.124688 0 0 0 0 0.14349 0 0 0 0 0.2375 0 0 0 0.5 0"/>
<feBlend mode="normal" in2="BackgroundImageFix" result="effect1_dropShadow"/>
<feBlend mode="normal" in="SourceGraphic" in2="effect1_dropShadow" result="shape"/>
</filter>
<filter id="filter3_d" x="179.385" y="181.753" width="35.1624" height="26.4598" filterUnits="userSpaceOnUse" color-interpolation-filters="sRGB">
<feFlood flood-opacity="0" result="BackgroundImageFix"/>
<feColorMatrix in="SourceAlpha" type="matrix" values="0 0 0 0 0 0 0 0 0 0 0 0 0 0 0 0 0 0 127 0"/>
<feOffset dy="4"/>
<feGaussianBlur stdDeviation="3"/>
<feColorMatrix type="matrix" values="0 0 0 0 0.124688 0 0 0 0 0.14349 0 0 0 0 0.2375 0 0 0 0.5 0"/>
<feBlend mode="normal" in2="BackgroundImageFix" result="effect1_dropShadow"/>
<feBlend mode="normal" in="SourceGraphic" in2="effect1_dropShadow" result="shape"/>
</filter>
<filter id="filter4_d" x="81.8271" y="138.615" width="31.6996" height="28.4221" filterUnits="userSpaceOnUse" color-interpolation-filters="sRGB">
<feFlood flood-opacity="0" result="BackgroundImageFix"/>
<feColorMatrix in="SourceAlpha" type="matrix" values="0 0 0 0 0 0 0 0 0 0 0 0 0 0 0 0 0 0 127 0"/>
<feOffset dy="4"/>
<feGaussianBlur stdDeviation="3"/>
<feColorMatrix type="matrix" values="0 0 0 0 0.124688 0 0 0 0 0.14349 0 0 0 0 0.2375 0 0 0 0.5 0"/>
<feBlend mode="normal" in2="BackgroundImageFix" result="effect1_dropShadow"/>
<feBlend mode="normal" in="SourceGraphic" in2="effect1_dropShadow" result="shape"/>
</filter>
<filter id="filter5_d" x="90.1426" y="128.622" width="34.2774" height="23.507" filterUnits="userSpaceOnUse" color-interpolation-filters="sRGB">
<feFlood flood-opacity="0" result="BackgroundImageFix"/>
<feColorMatrix in="SourceAlpha" type="matrix" values="0 0 0 0 0 0 0 0 0 0 0 0 0 0 0 0 0 0 127 0"/>
<feOffset dy="4"/>
<feGaussianBlur stdDeviation="3"/>
<feColorMatrix type="matrix" values="0 0 0 0 0.124688 0 0 0 0 0.14349 0 0 0 0 0.2375 0 0 0 0.5 0"/>
<feBlend mode="normal" in2="BackgroundImageFix" result="effect1_dropShadow"/>
<feBlend mode="normal" in="SourceGraphic" in2="effect1_dropShadow" result="shape"/>
</filter>
<linearGradient id="paint0_linear" x1="137.485" y1="70.4229" x2="157.74" y2="243.936" gradientUnits="userSpaceOnUse">
<stop stop-color="#006ECC"/>
<stop offset="1" stop-color="#1D2447"/>
</linearGradient>
<linearGradient id="paint1_linear" x1="142.679" y1="65.4841" x2="162.891" y2="239.008" gradientUnits="userSpaceOnUse">
<stop stop-color="#006ECC"/>
<stop offset="1" stop-color="#1D2447"/>
</linearGradient>
</defs>
</svg>
