<svg width="80" height="93" viewBox="0 0 80 93" fill="none" xmlns="http://www.w3.org/2000/svg">
<path d="M39.9998 76.9654C20.1942 76.9654 4.1377 72.216 4.1377 67.3447V78.5625C4.14873 83.4305 20.1998 88.1896 39.9998 88.1896C59.7998 88.1896 75.8508 83.4305 75.8618 78.5625V67.3447C75.8618 72.216 59.8053 76.9654 39.9998 76.9654Z" fill="#E4AF18"/>
<path d="M35.8621 59.3276C16.0566 59.3276 0 54.5782 0 49.7069V60.9246C0.0110345 65.7927 16.0621 70.5517 35.8621 70.5517C55.6621 70.5517 71.7131 65.7927 71.7241 60.9246V49.7069C71.7241 54.5782 55.6676 59.3276 35.8621 59.3276Z" fill="#F4BF1A"/>
<path d="M44.1384 41.6897C24.3329 41.6897 8.27637 36.9402 8.27637 32.069V43.2867C8.2874 48.1548 24.3384 52.9138 44.1384 52.9138C63.9384 52.9138 79.9895 48.1548 80.0005 43.2867V32.069C80.0005 36.9402 63.9439 41.6897 44.1384 41.6897Z" fill="#E4AF18"/>
<path d="M71.7241 13.036C71.7241 17.9057 55.6676 22.4482 35.8621 22.4482C16.0566 22.4482 0 17.9057 0 13.036C0 8.16472 16.0566 4.8103 35.8621 4.8103C55.6676 4.8103 71.7241 8.16472 71.7241 13.036Z" fill="#FFD949"/>
<path d="M35.8621 22.4482C16.0566 22.4482 0 17.6988 0 12.8275V24.0452C0.0110345 28.9133 16.0621 33.6723 35.8621 33.6723C55.6621 33.6723 71.7131 28.9133 71.7241 24.0452V12.8275C71.7241 17.6988 55.6676 22.4482 35.8621 22.4482Z" fill="#F4BF1A"/>
<path d="M5.51758 17.7565V28.9726C6.3562 29.3318 7.27482 29.6781 8.2762 30.0084V18.7907C7.27482 18.4604 6.3562 18.114 5.51758 17.7565Z" fill="#DCA815"/>
<path d="M63.4482 18.7907V30.0084C64.4496 29.6781 65.3682 29.3318 66.2069 28.9726V17.7565C65.3682 18.1156 64.4496 18.4604 63.4482 18.7907Z" fill="#DCA815"/>
<path d="M12.4141 19.9548V31.1742C13.2968 31.3874 14.2168 31.5895 15.1727 31.7803V20.5609C14.2168 20.3701 13.2968 20.1681 12.4141 19.9548Z" fill="#DCA815"/>
<path d="M56.5518 20.5609V31.7819C57.5076 31.5895 58.4276 31.3874 59.3104 31.1742V19.9548C58.4276 20.1681 57.5076 20.3701 56.5518 20.5609Z" fill="#DCA815"/>
<path d="M19.3105 21.2761V32.4971C20.2099 32.6317 21.1271 32.7568 22.0692 32.8691V21.6481C21.1271 21.5359 20.2099 21.4092 19.3105 21.2761Z" fill="#DCA815"/>
<path d="M49.6553 21.6497V32.8707C50.5973 32.7568 51.5146 32.6317 52.4139 32.4987V21.2761C51.5146 21.4124 50.5973 21.5375 49.6553 21.6497Z" fill="#DCA815"/>
<path d="M26.207 22.0618V33.2843C27.1132 33.3581 28.0319 33.4238 28.9657 33.4767V22.2526C28.0319 22.1997 27.1132 22.1355 26.207 22.0618Z" fill="#DCA815"/>
<path d="M42.7588 22.2526V33.4767C43.6926 33.4238 44.6112 33.3581 45.5174 33.2843V22.0618C44.6112 22.1355 43.6926 22.1997 42.7588 22.2526Z" fill="#DCA815"/>
<path d="M35.8617 22.4482C35.3997 22.4482 34.9404 22.4434 34.4824 22.4386V33.6627C34.9404 33.6675 35.3997 33.6724 35.8617 33.6724C36.3238 33.6724 36.7831 33.6675 37.241 33.6627V22.4386C36.7831 22.4434 36.3238 22.4482 35.8617 22.4482Z" fill="#DCA815"/>
<path d="M13.793 36.9979V48.2141C14.6316 48.5732 15.5502 48.9196 16.5516 49.2499V38.0322C15.5502 37.7018 14.6316 37.3555 13.793 36.9979Z" fill="#C49214"/>
<path d="M71.7236 38.0322V49.2499C72.725 48.9196 73.6436 48.5732 74.4823 48.2141V36.9979C73.6436 37.3571 72.725 37.7018 71.7236 38.0322Z" fill="#C49214"/>
<path d="M20.6895 39.1962V50.4155C21.5722 50.6287 22.4922 50.8308 23.4481 51.0216V39.8023C22.4922 39.6115 21.5722 39.4094 20.6895 39.1962Z" fill="#C49214"/>
<path d="M64.8281 39.8023V51.0232C65.784 50.8308 66.704 50.6287 67.5867 50.4155V39.1962C66.704 39.4094 65.784 39.6115 64.8281 39.8023Z" fill="#C49214"/>
<path d="M27.5859 40.5192V51.7401C28.4852 51.8748 29.4025 51.9999 30.3446 52.1121V40.8912C29.4025 40.7773 28.4852 40.6523 27.5859 40.5192Z" fill="#C49214"/>
<path d="M57.9307 40.8896V52.1121C58.8727 51.9983 59.79 51.8732 60.6893 51.7401V40.5192C59.79 40.6539 58.8727 40.7789 57.9307 40.8896Z" fill="#C49214"/>
<path d="M34.4824 41.3032V52.5258C35.3886 52.5995 36.3072 52.6653 37.241 52.7182V41.494C36.3072 41.4411 35.3886 41.377 34.4824 41.3032Z" fill="#C49214"/>
<path d="M51.0342 41.494V52.7182C51.968 52.6653 52.8866 52.5995 53.7928 52.5258V41.3032C52.8866 41.377 51.968 41.4411 51.0342 41.494Z" fill="#C49214"/>
<path d="M44.1381 41.6897C43.676 41.6897 43.2167 41.6849 42.7588 41.6801V52.9042C43.2167 52.909 43.676 52.9138 44.1381 52.9138C44.6002 52.9138 45.0595 52.909 45.5174 52.9042V41.6801C45.0595 41.6849 44.6002 41.6897 44.1381 41.6897Z" fill="#C49214"/>
<path d="M5.51758 54.6359V65.852C6.3562 66.2112 7.27482 66.5559 8.2762 66.8878V55.6701C7.27482 55.3398 6.3562 54.9934 5.51758 54.6359Z" fill="#DCA815"/>
<path d="M63.4482 55.6701V66.8878C64.4496 66.5575 65.3682 66.2112 66.2069 65.852V54.6359C65.3682 54.995 64.4496 55.3398 63.4482 55.6701Z" fill="#DCA815"/>
<path d="M12.4141 56.8341V68.0534C13.2968 68.2667 14.2168 68.4687 15.1727 68.6595V57.4402C14.2168 57.2494 13.2968 57.0474 12.4141 56.8341Z" fill="#DCA815"/>
<path d="M56.5518 57.4402V68.6611C57.5076 68.4687 58.4276 68.2667 59.3104 68.0534V56.8341C58.4276 57.0474 57.5076 57.2494 56.5518 57.4402Z" fill="#DCA815"/>
<path d="M19.3105 58.157V69.3779C20.2099 69.5126 21.1271 69.6377 22.0692 69.7499V58.529C21.1271 58.4151 20.2099 58.2901 19.3105 58.157Z" fill="#DCA815"/>
<path d="M49.6553 58.5274V69.7499C50.5973 69.6361 51.5146 69.511 52.4139 69.3779V58.157C51.5146 58.2917 50.5973 58.4167 49.6553 58.5274Z" fill="#DCA815"/>
<path d="M26.207 58.9412V70.1637C27.1132 70.2375 28.0319 70.3032 28.9657 70.3561V59.132C28.0319 59.0791 27.1132 59.0149 26.207 58.9412Z" fill="#DCA815"/>
<path d="M42.7588 59.132V70.3561C43.6926 70.3032 44.6112 70.2375 45.5174 70.1637V58.9412C44.6112 59.0149 43.6926 59.0791 42.7588 59.132Z" fill="#DCA815"/>
<path d="M35.8617 59.3276C35.3997 59.3276 34.9404 59.3228 34.4824 59.318V70.5421C34.9404 70.5469 35.3997 70.5518 35.8617 70.5518C36.3238 70.5518 36.7831 70.5469 37.241 70.5421V59.318C36.7831 59.3228 36.3238 59.3276 35.8617 59.3276Z" fill="#DCA815"/>
<path d="M9.65527 72.2738V83.4899C10.4939 83.8491 11.4125 84.1938 12.4139 84.5257V73.308C11.4125 72.9777 10.4939 72.6314 9.65527 72.2738Z" fill="#C49214"/>
<path d="M67.5859 73.308V84.5257C68.5873 84.1954 69.5059 83.8491 70.3446 83.4899V72.2738C69.5059 72.633 68.5873 72.9777 67.5859 73.308Z" fill="#C49214"/>
<path d="M16.5518 74.472V85.6914C17.4345 85.9046 18.3545 86.1067 19.3104 86.2975V75.0782C18.3545 74.8873 17.4345 74.6853 16.5518 74.472Z" fill="#C49214"/>
<path d="M60.6895 75.0782V86.2991C61.6453 86.1067 62.5653 85.9046 63.4481 85.6914V74.472C62.5653 74.6853 61.6453 74.8873 60.6895 75.0782Z" fill="#C49214"/>
<path d="M23.4482 75.7949V87.0159C24.3476 87.1505 25.2648 87.2756 26.2069 87.3878V76.1669C25.2648 76.0531 24.3476 75.928 23.4482 75.7949Z" fill="#C49214"/>
<path d="M53.793 76.1653V87.3878C54.735 87.274 55.6523 87.1489 56.5516 87.0159V75.7949C55.6523 75.9296 54.735 76.0547 53.793 76.1653Z" fill="#C49214"/>
<path d="M30.3447 76.5791V87.8016C31.2509 87.8754 32.1696 87.9411 33.1033 87.994V76.7699C32.1696 76.717 31.2509 76.6529 30.3447 76.5791Z" fill="#C49214"/>
<path d="M46.8965 76.7699V87.994C47.8303 87.9411 48.7489 87.8754 49.6551 87.8016V76.5791C48.7489 76.6529 47.8303 76.717 46.8965 76.7699Z" fill="#C49214"/>
<path d="M40.0004 76.9654C39.5383 76.9654 39.079 76.9606 38.6211 76.9558V88.18C39.079 88.1848 39.5383 88.1896 40.0004 88.1896C40.4625 88.1896 40.9218 88.1848 41.3797 88.18V76.9558C40.9218 76.9606 40.4625 76.9654 40.0004 76.9654Z" fill="#C49214"/>
<path d="M70.637 63.1309C66.7198 67.1363 52.6384 70.5516 35.8618 70.5516C22.7446 70.5516 11.2784 68.4623 5.02597 65.637C4.4508 66.2432 4.1377 66.8845 4.1377 67.5532C4.1377 72.4244 20.1942 76.9654 39.9998 76.9654C59.8067 76.9654 75.8618 72.4244 75.8618 67.5532C75.8618 65.8744 73.9515 64.3735 70.637 63.1309Z" fill="#FCC62D"/>
<path d="M44.1379 52.9138C25.9131 52.9138 10.8745 48.8811 8.58759 44.4427C3.23724 45.8522 0 47.7298 0 49.9153C0 54.785 16.0566 59.3276 35.8621 59.3276C55.6676 59.3276 71.7241 54.785 71.7241 49.9153C71.7241 49.7005 71.6828 49.4904 71.6207 49.282C65.0428 51.4338 55.1752 52.9138 44.1379 52.9138Z" fill="#FFD949"/>
<path d="M70.3357 26.5354C66.0446 30.4157 52.2405 33.6723 35.8626 33.6723C25.286 33.6723 15.7812 32.3126 9.21706 30.3051C8.60878 30.9305 8.27637 31.5879 8.27637 32.2773C8.27637 37.1486 24.3329 41.6896 44.1384 41.6896C63.9439 41.6896 80.0005 37.1486 80.0005 32.2773C80.0005 29.9491 76.3274 27.9689 70.3357 26.5354Z" fill="#FCC62D"/>
</svg>
