<svg width="1108" height="820" viewBox="0 0 1108 820" fill="none" xmlns="http://www.w3.org/2000/svg">
<mask id="mask0" mask-type="alpha" maskUnits="userSpaceOnUse" x="0" y="0" width="1108" height="820">
<rect width="1108" height="820" fill="#292C3B"/>
</mask>
<g mask="url(#mask0)">
<g filter="url(#filter0_d)">
<path d="M890.581 90.5313C917.398 117.596 940.044 164.978 954.406 224.422C968.762 283.839 974.813 355.201 968.527 430.121C955.954 579.967 894.042 743.923 750.679 855.037C638.961 941.624 488.003 906.665 371.483 812.3C254.984 717.953 173.359 564.539 200.276 415.005C209.599 363.209 226.616 329.878 248.555 306.945C270.501 284.003 297.458 271.374 326.852 261.132C337.308 257.488 348.076 254.148 359.029 250.751C409.58 235.071 464.067 218.169 510.05 164.563C555.43 111.661 623.76 66.0083 694.175 47.1791C764.573 28.3542 836.91 36.3634 890.581 90.5313Z" stroke="url(#paint0_linear)" stroke-width="2"/>
</g>
<g filter="url(#filter1_di)">
<path d="M907.291 105.827C1015.29 214.827 1054.58 649.166 767.291 871.827C542.792 1045.83 161.291 730.828 215.291 430.827C252.684 223.093 408.703 315.827 525.291 179.912C616.291 73.8274 799.291 -3.17257 907.291 105.827Z" fill="#006ECC"/>
</g>
<g filter="url(#filter2_d)">
<path d="M634.791 49.8273C697.991 16.2273 747.791 18.8273 777.291 20.3273" stroke="url(#paint1_linear)" stroke-width="2" stroke-linecap="round"/>
</g>
</g>
<defs>
<filter id="filter0_d" x="189.119" y="35.9824" width="787.882" height="878.601" filterUnits="userSpaceOnUse" color-interpolation-filters="sRGB">
<feFlood flood-opacity="0" result="BackgroundImageFix"/>
<feColorMatrix in="SourceAlpha" type="matrix" values="0 0 0 0 0 0 0 0 0 0 0 0 0 0 0 0 0 0 127 0"/>
<feOffset dy="4"/>
<feGaussianBlur stdDeviation="2.5"/>
<feColorMatrix type="matrix" values="0 0 0 0 0 0 0 0 0 0.431373 0 0 0 0 0.8 0 0 0 0.8 0"/>
<feBlend mode="normal" in2="BackgroundImageFix" result="effect1_dropShadow"/>
<feBlend mode="normal" in="SourceGraphic" in2="effect1_dropShadow" result="shape"/>
</filter>
<filter id="filter1_di" x="146.119" y="-11.0176" width="905.882" height="996.601" filterUnits="userSpaceOnUse" color-interpolation-filters="sRGB">
<feFlood flood-opacity="0" result="BackgroundImageFix"/>
<feColorMatrix in="SourceAlpha" type="matrix" values="0 0 0 0 0 0 0 0 0 0 0 0 0 0 0 0 0 0 127 0"/>
<feOffset/>
<feGaussianBlur stdDeviation="32"/>
<feColorMatrix type="matrix" values="0 0 0 0 0 0 0 0 0 0.431373 0 0 0 0 0.8 0 0 0 0.4 0"/>
<feBlend mode="normal" in2="BackgroundImageFix" result="effect1_dropShadow"/>
<feBlend mode="normal" in="SourceGraphic" in2="effect1_dropShadow" result="shape"/>
<feColorMatrix in="SourceAlpha" type="matrix" values="0 0 0 0 0 0 0 0 0 0 0 0 0 0 0 0 0 0 127 0" result="hardAlpha"/>
<feOffset dy="4"/>
<feGaussianBlur stdDeviation="16"/>
<feComposite in2="hardAlpha" operator="arithmetic" k2="-1" k3="1"/>
<feColorMatrix type="matrix" values="0 0 0 0 0.3875 0 0 0 0 0.71777 0 0 0 0 1 0 0 0 0.6 0"/>
<feBlend mode="normal" in2="shape" result="effect2_innerShadow"/>
</filter>
<filter id="filter2_d" x="628.791" y="17.5714" width="154.5" height="42.2561" filterUnits="userSpaceOnUse" color-interpolation-filters="sRGB">
<feFlood flood-opacity="0" result="BackgroundImageFix"/>
<feColorMatrix in="SourceAlpha" type="matrix" values="0 0 0 0 0 0 0 0 0 0 0 0 0 0 0 0 0 0 127 0"/>
<feOffset dy="4"/>
<feGaussianBlur stdDeviation="2.5"/>
<feColorMatrix type="matrix" values="0 0 0 0 0 0 0 0 0 0.431373 0 0 0 0 0.8 0 0 0 0.8 0"/>
<feBlend mode="normal" in2="BackgroundImageFix" result="effect1_dropShadow"/>
<feBlend mode="normal" in="SourceGraphic" in2="effect1_dropShadow" result="shape"/>
</filter>
<linearGradient id="paint0_linear" x1="369.291" y1="244.827" x2="838.291" y2="618.827" gradientUnits="userSpaceOnUse">
<stop stop-color="#1694FF"/>
<stop offset="0.479167" stop-color="#1694FF" stop-opacity="0"/>
</linearGradient>
<linearGradient id="paint1_linear" x1="635.291" y1="49.8273" x2="759.712" y2="95.647" gradientUnits="userSpaceOnUse">
<stop stop-color="#1694FF"/>
<stop offset="1" stop-color="#1694FF" stop-opacity="0"/>
</linearGradient>
</defs>
</svg>
