<svg width="51" height="58" viewBox="0 0 51 58" fill="none" xmlns="http://www.w3.org/2000/svg">
<g clip-path="url(#clip0)">
<path d="M22.8155 55.3501C28.5355 58.1646 33.5514 58.1851 37.0765 55.9635C37.1906 55.9059 43.1457 52.1762 43.2599 52.1186C46.7609 49.7144 41.482 49.7638 41.0647 43.2687C40.2066 30.2099 30.0253 14.9829 18.3327 9.22954C12.5438 6.38113 15.1336 1.02413 11.5863 3.34856C11.4951 3.41753 5.10845 7.73169 4.99428 7.78936C1.56217 10.2274 -0.356105 14.9187 0.0722135 21.3339C0.952863 34.3469 11.1229 49.5968 22.8155 55.3501Z" fill="url(#paint0_linear)"/>
<path d="M29.3728 51.0952C41.0655 56.8485 49.8472 50.9237 48.9778 37.8879C48.1198 24.8292 37.9385 9.60215 26.2459 3.84884C14.5532 -1.90447 5.77153 4.02036 6.64087 17.0562C7.49889 30.1149 17.6802 45.3419 29.3728 51.0952Z" fill="url(#paint1_linear)"/>
<path d="M28.9807 44.9537C37.618 49.2036 44.1189 44.8318 43.4877 35.1862C42.8565 25.5405 35.3216 14.2625 26.6842 10.0125C18.0469 5.76251 11.546 10.1343 12.1772 19.78C12.8084 29.4256 20.3203 40.6924 28.9807 44.9537Z" fill="url(#paint2_linear)"/>
<path d="M41.6479 35.8472C41.0167 26.2015 33.4817 14.9233 24.8442 10.6733C21.743 9.14732 18.935 8.76179 16.6249 9.27584C19.2048 7.92686 22.6868 8.04636 26.661 10.0018C35.2984 14.2519 42.8334 25.53 43.4646 35.1758C43.8802 41.3856 41.3393 45.3721 37.1767 46.3408C40.2476 44.7496 42.0003 41.0867 41.6479 35.8472Z" fill="url(#paint3_linear)"/>
<path d="M0.137507 21.8186C0.113516 21.636 0.0895258 21.4535 0.0885004 21.2822C0.0761634 21.1339 0.0867908 20.9968 0.0744538 20.8485L6.63126 16.4766C6.64394 16.682 6.622 16.8419 6.63468 17.0474C6.64701 17.1957 6.67066 17.3212 6.683 17.4695L0.137507 21.8186Z" fill="#FDD65B"/>
<path d="M0.830941 13.8811L7.4331 9.4748C7.29805 9.86365 7.19762 10.298 7.09719 10.7323L0.495023 15.1386C0.584145 14.7272 0.707543 14.3041 0.830941 13.8811Z" fill="#FDD65B"/>
<path d="M0.948728 26.7127L7.47134 22.3524C7.55326 22.6488 7.63517 22.9452 7.69413 23.2303L1.17151 27.5907C1.0896 27.2943 1.00768 26.9979 0.948728 26.7127Z" fill="#FDD65B"/>
<path d="M4.94344 36.958L11.4549 32.6205C11.5937 32.8595 11.7212 33.1215 11.86 33.3605L5.34859 37.698C5.22108 37.4361 5.08226 37.197 4.94344 36.958Z" fill="#FDD65B"/>
<path d="M2.64372 32.0137L9.15509 27.6762C9.27128 27.961 9.37582 28.2116 9.49202 28.4964L2.98065 32.8339C2.86445 32.5491 2.75991 32.2985 2.64372 32.0137Z" fill="#FDD65B"/>
<path d="M7.73324 41.5456L14.2447 37.208C14.4065 37.4584 14.5796 37.6858 14.7527 37.9133L8.21826 42.2396C8.05647 41.9892 7.88337 41.7617 7.73324 41.5456Z" fill="#FDD65B"/>
<path d="M29.7566 57.4504L36.1541 53.1705C36.6124 53.2252 37.105 53.2684 37.5629 53.266L31.1768 57.5231C30.7188 57.5254 30.2492 57.4936 29.7566 57.4504Z" fill="#FDD65B"/>
<path d="M29.8545 51.2927C30.1761 51.4508 30.4859 51.5749 30.7958 51.6989L24.3297 56.002C24.0198 55.878 23.7213 55.7311 23.3884 55.5958L29.8545 51.2927Z" fill="#FDD65B"/>
<path d="M19.3075 53.2737C19.0545 53.0924 18.7902 52.9339 18.526 52.7754L24.992 48.4722C25.245 48.6536 25.5093 48.8121 25.7622 48.9935L19.3075 53.2737Z" fill="#FDD65B"/>
<path d="M20.9158 45.1005C21.1345 45.2935 21.3532 45.4864 21.5719 45.6794L15.0946 50.0054C14.8759 49.8124 14.6572 49.6195 14.4155 49.4152L20.9158 45.1005Z" fill="#FDD65B"/>
<path d="M11.4746 46.3461C11.2902 46.1416 11.0829 45.9257 10.9098 45.6983L17.4099 41.3836C17.583 41.611 17.8017 41.804 17.9748 42.0315L11.4746 46.3461Z" fill="#FDD65B"/>
<path d="M0.0838067 21.3088C-0.344524 14.8934 1.5738 10.202 5.006 7.76384C5.01731 7.74094 5.35947 7.51084 5.8727 7.16569C2.89926 9.71569 1.27715 14.1545 1.67973 20.1018C2.53778 33.1609 12.7194 48.3884 24.4123 54.1419C30.1324 56.9565 35.1484 56.9769 38.6736 54.7553C38.7535 54.7092 37.2031 55.8818 37.089 55.9394C33.5525 58.184 28.5365 58.1635 22.8164 55.3489C11.1234 49.5954 0.953166 34.345 0.0838067 21.3088Z" fill="url(#paint4_linear)"/>
<path d="M5.71714 17.5949C5.30116 11.3278 7.14065 6.85366 10.4237 4.37059C8.05782 7.02033 6.82311 11.1375 7.15297 16.4229C8.01102 29.4822 18.1927 44.7098 29.8857 50.4634C35.9734 53.4589 41.2631 53.2724 44.8198 50.5824C41.339 54.4482 35.3876 55.0491 28.4269 51.6241C16.7798 45.8931 6.57519 30.6541 5.71714 17.5949Z" fill="url(#paint5_radial)"/>
<path d="M31.8806 31.9674L28.9659 32.1611L29.9615 33.6365L27.2118 33.8193L26.2162 32.3438L24.3555 32.4675L23.1084 30.6194L24.969 30.4958L24.579 29.9178L22.7183 30.0414L21.4712 28.1933L23.3318 28.0697L19.7393 22.746L24.927 22.4012C25.9291 22.3346 26.91 22.4257 27.8695 22.6745C28.8291 22.9233 29.7048 23.3127 30.4967 23.8428C31.2913 24.3675 31.9281 24.9847 32.4071 25.6945C33.1461 26.7897 33.2804 27.684 32.8098 28.3774C32.3454 29.0705 31.3157 29.47 29.7209 29.576L27.3287 29.735L27.7187 30.313L30.6334 30.1193L31.8806 31.9674ZM26.0815 27.8869L28.4554 27.7292C29.9953 27.6268 30.3871 27.0154 29.631 25.8949C29.2717 25.3625 28.7871 24.9471 28.177 24.6486C27.5636 24.345 26.9099 24.2136 26.216 24.2545L23.7412 24.4189L26.0815 27.8869Z" fill="url(#paint6_linear)"/>
<path d="M33.8146 33.3153L29.4047 33.6084L30.9111 35.8407L26.7508 36.1172L25.2444 33.8849L22.4292 34.072L20.5423 31.2758L23.3574 31.0887L22.7673 30.2142L19.9522 30.4013L18.0653 27.6052L20.8804 27.4181L15.4448 19.3634L23.2939 18.8417C24.8101 18.741 26.2941 18.8788 27.7459 19.2552C29.1977 19.6316 30.5227 20.2208 31.7208 21.0229C32.923 21.8166 33.8864 22.7505 34.6112 23.8244C35.7294 25.4814 35.9325 26.8345 35.2205 27.8837C34.5178 28.9323 32.96 29.5368 30.547 29.6972L26.9276 29.9377L27.5177 30.8122L31.9276 30.5192L33.8146 33.3153ZM25.0407 27.1416L28.6324 26.9029C30.9622 26.7481 31.555 25.823 30.411 24.1276C29.8674 23.3222 29.1341 22.6936 28.2111 22.242C27.283 21.7827 26.2939 21.5839 25.2441 21.6457L21.4998 21.8945L25.0407 27.1416Z" fill="url(#paint7_linear)"/>
</g>
<defs>
<linearGradient id="paint0_linear" x1="4.10211" y1="8.84883" x2="37.1517" y2="56.168" gradientUnits="userSpaceOnUse">
<stop stop-color="#FFBB96"/>
<stop offset="0.2273" stop-color="#FFFBC9"/>
<stop offset="0.5404" stop-color="#F9B673"/>
<stop offset="0.6391" stop-color="#F9B876"/>
<stop offset="0.7249" stop-color="#FABE81"/>
<stop offset="0.8057" stop-color="#FCC993"/>
<stop offset="0.8586" stop-color="#FED2A3"/>
<stop offset="0.9697" stop-color="#FFC28C"/>
</linearGradient>
<linearGradient id="paint1_linear" x1="34.6303" y1="20.166" x2="-11.3361" y2="69.7417" gradientUnits="userSpaceOnUse">
<stop offset="0.0354" stop-color="#FFBA78"/>
<stop offset="0.395" stop-color="#FFC987"/>
<stop offset="1" stop-color="#FEECA8"/>
</linearGradient>
<linearGradient id="paint2_linear" x1="29.3325" y1="45.2958" x2="23.0409" y2="-29.7899" gradientUnits="userSpaceOnUse">
<stop offset="0.0354" stop-color="#FFBA78"/>
<stop offset="0.395" stop-color="#FFC987"/>
<stop offset="1" stop-color="#FEECA8"/>
</linearGradient>
<linearGradient id="paint3_linear" x1="46.316" y1="33.3055" x2="17.3623" y2="22.8209" gradientUnits="userSpaceOnUse">
<stop stop-color="#FFBB96"/>
<stop offset="0.2273" stop-color="#FFFBC9"/>
<stop offset="0.5404" stop-color="#F9B673"/>
<stop offset="0.6391" stop-color="#F9B876"/>
<stop offset="0.7249" stop-color="#FABE81"/>
<stop offset="0.8057" stop-color="#FCC993"/>
<stop offset="0.8586" stop-color="#FED2A3"/>
<stop offset="0.9697" stop-color="#FFC28C"/>
</linearGradient>
<linearGradient id="paint4_linear" x1="-1.40632" y1="12.6909" x2="31.4314" y2="59.7054" gradientUnits="userSpaceOnUse">
<stop stop-color="#FFBB96"/>
<stop offset="0.2273" stop-color="#FFFBC9"/>
<stop offset="0.5404" stop-color="#F9B673"/>
<stop offset="0.6391" stop-color="#F9B876"/>
<stop offset="0.7249" stop-color="#FABE81"/>
<stop offset="0.8057" stop-color="#FCC993"/>
<stop offset="0.8586" stop-color="#FED2A3"/>
<stop offset="0.9697" stop-color="#FFC28C"/>
</linearGradient>
<radialGradient id="paint5_radial" cx="0" cy="0" r="1" gradientUnits="userSpaceOnUse" gradientTransform="translate(16.0463 29.1811) rotate(116.295) scale(22.1622 22.2187)">
<stop stop-color="white"/>
<stop offset="1" stop-color="#FEECA8"/>
</radialGradient>
<linearGradient id="paint6_linear" x1="19.0984" y1="24.0719" x2="32.5268" y2="30.6655" gradientUnits="userSpaceOnUse">
<stop stop-color="#FFBB96"/>
<stop offset="0.5404" stop-color="#F9B673"/>
<stop offset="0.6391" stop-color="#F9B876"/>
<stop offset="0.7249" stop-color="#FABE81"/>
<stop offset="0.8057" stop-color="#FCC993"/>
<stop offset="0.8586" stop-color="#FED2A3"/>
<stop offset="0.9697" stop-color="#FFC28C"/>
</linearGradient>
<linearGradient id="paint7_linear" x1="50.3584" y1="24.2972" x2="28.0253" y2="24.6208" gradientUnits="userSpaceOnUse">
<stop offset="0.0354" stop-color="#FFBA78"/>
<stop offset="0.395" stop-color="#FFC987"/>
<stop offset="1" stop-color="#FEECA8"/>
</linearGradient>
<clipPath id="clip0">
<rect width="51" height="58" fill="white"/>
</clipPath>
</defs>
</svg>
