<svg width="190" height="87" viewBox="0 0 190 87" fill="none" xmlns="http://www.w3.org/2000/svg">
<path d="M93.113 48.813H96.0657V55.4305H98.199L102.027 48.813H105.255L100.66 56.5796V56.634L105.529 65.1095H102.192L98.2534 57.999H96.1218V65.1095H93.1674V48.8113H93.113V48.813ZM112.146 53.134C115.699 53.134 118.599 55.7042 118.599 59.2586C118.599 62.8691 115.755 65.3849 112.201 65.3849C108.645 65.3849 105.801 62.8691 105.801 59.2586C105.746 55.6498 108.59 53.134 112.146 53.134ZM120.896 53.406H123.685V62.5954H127.35V53.4077H130.138V62.5954H133.803V53.4077H136.592V65.1095H121.004V53.406H120.896ZM144.852 53.134C148.187 53.134 150.046 55.5954 150.046 58.6586C150.037 59.0431 150.001 59.4265 149.938 59.806H141.897C142.062 61.8288 143.648 62.9235 145.399 62.9235C146.601 62.9235 147.804 62.3762 148.734 61.6656L149.883 63.7445C148.68 64.7815 146.874 65.4393 145.18 65.4393C141.296 65.4393 138.89 62.6498 138.89 59.313C138.89 55.6498 141.35 53.134 144.852 53.134ZM151.413 62.6498C152.836 62.4305 153.874 61.2288 153.874 57.0709V53.4077H162.408V65.1095H159.508V55.7569H156.664V57.0692C156.664 62.1552 155.297 65.1095 151.413 65.2183V62.6481V62.6498ZM170.72 53.134C174.055 53.134 175.915 55.5954 175.915 58.6586C175.906 59.0431 175.869 59.4265 175.806 59.806H167.766C167.931 61.8288 169.517 62.9235 171.267 62.9235C172.469 62.9235 173.673 62.3762 174.603 61.6656L175.752 63.7445C174.548 64.7815 172.743 65.4393 171.048 65.4393C167.166 65.4393 164.759 62.6498 164.759 59.313C164.759 55.6498 167.22 53.134 170.72 53.134ZM178.322 53.406H181.22V57.8919H182.643L185.487 53.4077H188.713L184.994 58.9849V59.041L189.15 65.1095H185.76L182.697 60.3533H181.167V65.1095H178.266V53.406H178.32H178.322ZM112.146 62.8691C114.06 62.8691 115.646 61.3919 115.646 59.2042C115.646 57.0709 114.06 55.5393 112.145 55.5393C110.232 55.5393 108.701 57.0182 108.701 59.2042C108.701 61.3919 110.231 62.8691 112.146 62.8691ZM147.094 57.7831C147.094 56.2516 146.053 55.3217 144.741 55.3217C143.266 55.3217 142.171 56.306 141.897 57.7831H147.094ZM172.962 57.7831C172.962 56.2516 171.924 55.3217 170.611 55.3217C169.132 55.3217 168.039 56.306 167.766 57.7831H172.962Z" fill="#2D3540"/>
<path d="M133.967 13.3183V40.9376C133.97 41.0387 133.952 41.1392 133.914 41.2331C133.876 41.3269 133.82 41.4122 133.749 41.4837C133.677 41.5552 133.592 41.6115 133.498 41.6491C133.404 41.6867 133.304 41.7049 133.203 41.7026H127.569C127.468 41.7049 127.368 41.6867 127.274 41.6491C127.18 41.6115 127.095 41.5552 127.023 41.4837C126.952 41.4122 126.895 41.3269 126.858 41.2331C126.82 41.1392 126.802 41.0387 126.804 40.9376V13.3183C126.802 13.2172 126.82 13.1167 126.858 13.0229C126.895 12.929 126.952 12.8437 127.023 12.7722C127.095 12.7008 127.18 12.6445 127.274 12.6069C127.368 12.5693 127.468 12.5511 127.569 12.5534H133.203C133.304 12.5511 133.404 12.5693 133.498 12.6069C133.592 12.6445 133.677 12.7008 133.749 12.7722C133.82 12.8437 133.876 12.929 133.914 13.0229C133.952 13.1167 133.97 13.2172 133.967 13.3183ZM177.939 12.5534C178.159 12.5534 178.432 12.6622 178.704 12.8815C178.869 13.0446 178.869 13.3183 178.815 13.5376L169.517 41.2113C169.46 41.3545 169.363 41.4778 169.236 41.5655C169.11 41.6533 168.96 41.7015 168.806 41.7043H163.775C163.446 41.7043 163.173 41.5394 163.064 41.2113L157.647 25.0779L152.232 41.2096C152.176 41.3528 152.078 41.4761 151.952 41.5638C151.825 41.6516 151.676 41.6998 151.522 41.7026H146.49C146.162 41.7026 145.889 41.5394 145.78 41.2096L136.482 13.5359C136.427 13.3183 136.427 13.099 136.59 12.8815C136.701 12.6622 136.975 12.5534 137.192 12.5534H143.482C143.81 12.5534 144.083 12.771 144.194 13.099L149.169 29.4517L154.639 13.099C154.696 12.9558 154.794 12.8326 154.92 12.7448C155.046 12.6571 155.196 12.6088 155.35 12.6061H159.78C160.108 12.6061 160.382 12.771 160.49 13.099L165.961 29.4517L170.938 13.099C170.982 12.9441 171.075 12.8076 171.203 12.7094C171.331 12.6112 171.487 12.5565 171.648 12.5534H177.938H177.939ZM187.455 12.5534C187.838 12.5534 188.166 12.8815 188.22 13.3183V40.9376C188.223 41.0387 188.204 41.1392 188.167 41.2331C188.129 41.3269 188.073 41.4122 188.001 41.4837C187.93 41.5552 187.845 41.6115 187.751 41.6491C187.657 41.6867 187.556 41.7049 187.455 41.7026H181.822C181.721 41.7049 181.62 41.6867 181.526 41.6491C181.433 41.6115 181.347 41.5552 181.276 41.4837C181.204 41.4122 181.148 41.3269 181.11 41.2331C181.073 41.1392 181.055 41.0387 181.057 40.9376V13.3183C181.055 13.2172 181.073 13.1167 181.11 13.0229C181.148 12.929 181.204 12.8437 181.276 12.7722C181.347 12.7008 181.433 12.6445 181.526 12.6069C181.62 12.5693 181.721 12.5511 181.822 12.5534H187.455ZM123.522 40.72C123.85 41.1025 123.576 41.6482 123.083 41.6482H116.192C116.056 41.6518 115.922 41.6241 115.798 41.5672C115.675 41.5103 115.567 41.4258 115.482 41.3201L114.334 39.899C111.927 41.4289 109.082 42.3604 106.074 42.3604C97.6534 42.3604 90.8166 35.5236 90.8166 27.1008C90.8166 18.678 97.6534 11.8411 106.074 11.8411C114.497 11.8411 121.334 18.678 121.334 27.1008C121.334 30.1095 120.459 32.9534 118.927 35.3587L123.522 40.7183V40.72ZM65.9306 54.1183C67.3534 54.6657 67.9008 56.7973 68.0096 57.7271C68.2288 59.4236 67.7376 60.0797 67.1902 60.0797C66.6429 60.0797 65.8762 59.4236 65.0569 58.1113C64.2359 56.7973 63.9078 55.3218 64.3464 54.5552C64.6184 54.0622 65.2201 53.8446 65.9323 54.1183H65.9306ZM57.6183 60.299C58.4938 60.299 59.478 60.6815 60.3534 61.4464C62.0482 62.8692 62.5411 64.5096 61.6657 65.7131C61.1727 66.3148 60.3534 66.6973 59.4236 66.6973C58.4938 66.6973 57.5095 66.3692 56.8534 65.7675C55.3218 64.4552 54.885 62.2658 55.8675 61.064C56.2516 60.571 56.8534 60.299 57.6183 60.299ZM38.4779 76.1043C17.6938 76.1043 0.849854 59.2587 0.849854 38.4762C0.849854 17.6938 17.6955 0.849854 38.4762 0.849854C59.2587 0.849854 76.1043 17.6955 76.1043 38.4762C76.1043 45.5306 74.1359 52.1499 70.8007 57.7832C70.6902 57.9464 70.4166 57.892 70.3622 57.6727C69.0499 48.4306 63.4166 43.3429 55.213 41.813C54.5008 41.7026 54.392 41.2657 55.3218 41.1569C57.8376 40.9376 61.392 40.992 63.2517 41.3201C63.3605 40.3903 63.4165 39.4061 63.4165 38.4218C63.4165 24.6938 52.2587 13.5359 38.5306 13.5359C24.8043 13.5359 13.6464 24.6938 13.6464 38.4218C13.6464 52.1499 24.8043 63.3078 38.5323 63.3078H39.6797C39.2899 61.0873 39.1248 58.8333 39.1868 56.5797C39.2429 55.0482 39.5709 54.8289 40.2271 56.0324C43.6727 61.9938 48.5955 67.3534 58.2201 69.4867C66.0955 71.2376 73.971 73.2604 82.4482 84.0341C83.2131 84.964 82.0657 85.9482 81.1903 85.1833C72.5499 77.5254 64.6744 75.0096 57.5095 75.0096C49.4692 75.0657 44.0008 76.1043 38.4762 76.1043H38.4779ZM109.848 34.5938L106.839 30.9289C106.513 30.5464 106.787 29.9446 107.278 29.9446H113.622C113.95 29.0692 114.115 28.085 114.115 27.1008C114.115 22.5622 110.724 18.6236 106.074 18.6236C101.427 18.6236 98.0342 22.5622 98.0342 27.1008C98.0342 31.6394 101.427 35.5236 106.074 35.5236C107.387 35.578 108.701 35.1955 109.848 34.5938Z" fill="#FF8C00"/>
</svg>
